<?xml version="1.0" encoding="utf-8"?>
<!-- Generator: Adobe Illustrator 15.1.0, SVG Export Plug-In . SVG Version: 6.00 Build 0)  -->
<!DOCTYPE svg PUBLIC "-//W3C//DTD SVG 1.1//EN" "http://www.w3.org/Graphics/SVG/1.1/DTD/svg11.dtd">
<svg version="1.1" id="Layer_3" xmlns="http://www.w3.org/2000/svg" xmlns:xlink="http://www.w3.org/1999/xlink" x="0px" y="0px"
	 width="600px" height="600px" viewBox="0 0 600 600" enable-background="new 0 0 600 600" xml:space="preserve">
<path fill="#000000" d="M300,405.453c-6.63,0-13.261-2.526-18.317-7.575L122.59,238.781c-10.121-10.126-10.121-26.531,0-36.647
	c10.116-10.116,26.521-10.116,36.642,0L300,342.909l140.764-140.772c10.118-10.115,26.53-10.115,36.646,0
	c10.121,10.117,10.121,26.527,0,36.645L318.319,397.883C313.263,402.936,306.631,405.453,300,405.453z"/>
</svg>
