<?xml version="1.0" encoding="utf-8"?>
<!-- Generator: Adobe Illustrator 15.1.0, SVG Export Plug-In . SVG Version: 6.00 Build 0)  -->
<!DOCTYPE svg PUBLIC "-//W3C//DTD SVG 1.1//EN" "http://www.w3.org/Graphics/SVG/1.1/DTD/svg11.dtd">
<svg version="1.1" id="Layer_3" xmlns="http://www.w3.org/2000/svg" xmlns:xlink="http://www.w3.org/1999/xlink" x="0px" y="0px"
	 width="100px" height="100px" viewBox="0 0 100 100" enable-background="new 0 0 100 100" xml:space="preserve">
<path fill="#FF0000" d="M69.751,53.695l-32.103,32.1c-2.041,2.042-5.353,2.042-7.394,0c-2.041-2.041-2.041-5.354,0-7.395L58.658,50
	L30.253,21.599c-2.041-2.042-2.041-5.353,0-7.394c2.041-2.042,5.353-2.042,7.396,0l32.101,32.1c1.019,1.02,1.528,2.357,1.528,3.695
	S70.77,52.676,69.751,53.695z"/>
</svg>
